Chapter 16 Importando datos: .RData/.rda | Estadística para Ciencia de Datos
…
            Estadística para Ciencia de Datos

Chapter 16 Importando datos: .RData/.rda

Fíjate que esta carga .bg-purple_light[no se asigna a ninguna variable] ya que en .RData ya tenemos dicha variable. No tenemos guardado un archivo en un formato concreto, tenemos guardada la variable en sí (en este caso es un data.frame que se llama titanic, pero podría ser un vector, una lista, una matriz, etc)

load("./datos/titanic.RData") #<<
as_tibble(titanic)

## # A tibble: 891 × 12
##    PassengerId Survived Pclass Name   Sex     Age SibSp Parch Ticket  Fare Cabin
##          <int>    <int>  <int> <chr>  <fct> <dbl> <int> <int> <fct>  <dbl> <fct>
##  1           1        0      3 Braun… male     22     1     0 A/5 2…  7.25 ""   
##  2           2        1      1 Cumin… fema…    38     1     0 PC 17… 71.3  "C85"
##  3           3        1      3 Heikk… fema…    26     0     0 STON/…  7.92 ""   
##  4           4        1      1 Futre… fema…    35     1     0 113803 53.1  "C12…
##  5           5        0      3 Allen… male     35     0     0 373450  8.05 ""   
##  6           6        0      3 Moran… male     NA     0     0 330877  8.46 ""   
##  7           7        0      1 McCar… male     54     0     0 17463  51.9  "E46"
##  8           8        0      3 Palss… male      2     3     1 349909 21.1  ""   
##  9           9        1      3 Johns… fema…    27     0     2 347742 11.1  ""   
## 10          10        1      2 Nasse… fema…    14     1     0 237736 30.1  ""   
## # ℹ 881 more rows
## # ℹ 1 more variable: Embarked <fct>
