Chapter 18 Importando datos RECTANGULARES | Estadística para Ciencia de Datos
…
write_csv(starwars %>% select(name:species),
          file = "./datos/starwars.csv")
read_csv(file = "./datos/starwars.csv")

## Rows: 87 Columns: 11
## ── Column specification ────────────────────────────────────────────────────────
## Delimiter: ","
## chr (8): name, hair_color, skin_color, eye_color, sex, gender, homeworld, sp...
## dbl (3): height, mass, birth_year
## 
## ℹ Use `spec()` to retrieve the full column specification for this data.
## ℹ Specify the column types or set `show_col_types = FALSE` to quiet this message.

## # A tibble: 87 × 11
##    name     height  mass hair_color skin_color eye_color birth_year sex   gender
##    <chr>     <dbl> <dbl> <chr>      <chr>      <chr>          <dbl> <chr> <chr> 
##  1 Luke Sk…    172    77 blond      fair       blue            19   male  mascu…
##  2 C-3PO       167    75 <NA>       gold       yellow         112   none  mascu…
##  3 R2-D2        96    32 <NA>       white, bl… red             33   none  mascu…
##  4 Darth V…    202   136 none       white      yellow          41.9 male  mascu…
##  5 Leia Or…    150    49 brown      light      brown           19   fema… femin…
##  6 Owen La…    178   120 brown, gr… light      blue            52   male  mascu…
##  7 Beru Wh…    165    75 brown      light      blue            47   fema… femin…
##  8 R5-D4        97    32 <NA>       white, red red             NA   none  mascu…
##  9 Biggs D…    183    84 black      light      brown           24   male  mascu…
## 10 Obi-Wan…    182    77 auburn, w… fair       blue-gray       57   male  mascu…
## # ℹ 77 more rows
## # ℹ 2 more variables: homeworld <chr>, species <chr>
…
## Rows: 500000 Columns: 15
## ── Column specification ────────────────────────────────────────────────────────
## Delimiter: ","
## chr  (7): ambito, cod_ambito, nombre_ambito, cod_sexo, nombre_sexo, cod_geda...
## dbl  (7): cod_ine_ambito, defunciones_observadas, defunciones_estimadas_base...
## date (1): fecha_defuncion
## 
## ℹ Use `spec()` to retrieve the full column specification for this data.
## ℹ Specify the column types or set `show_col_types = FALSE` to quiet this message.

momo_datos

## # A tibble: 500,000 × 15
##    ambito cod_ambito cod_ine_ambito nombre_ambito cod_sexo nombre_sexo cod_gedad
##    <chr>  <chr>               <dbl> <chr>         <chr>    <chr>       <chr>    
##  1 ccaa   AN                      1 Andalucía     1        hombres     +65      
##  2 ccaa   AN                      1 Andalucía     1        hombres     +85      
##  3 ccaa   AN                      1 Andalucía     1        hombres     0-14     
##  4 ccaa   AN                      1 Andalucía     1        hombres     15-44    
##  5 ccaa   AN                      1 Andalucía     1        hombres     45-64    
##  6 ccaa   AN                      1 Andalucía     1        hombres     65-74    
##  7 ccaa   AN                      1 Andalucía     1        hombres     75-84    
##  8 ccaa   AN                      1 Andalucía     1        hombres     all      
##  9 ccaa   AN                      1 Andalucía     6        mujeres     +65      
## 10 ccaa   AN                      1 Andalucía     6        mujeres     +85      
## # ℹ 499,990 more rows
## # ℹ 8 more variables: nombre_gedad <chr>, fecha_defuncion <date>,
## #   defunciones_observadas <dbl>, defunciones_estimadas_base <dbl>,
## #   defunciones_estimadas_base_q01 <dbl>, defunciones_estimadas_base_q99 <dbl>,
## #   defunciones_atrib_exc_temp <dbl>, defunciones_atrib_def_temp <dbl>
…
discurso_2021 <-
  read_delim(file = "https://raw.githubusercontent.com/lirondos/discursos-de-navidad/master/data/speeches/2021.txt", delim = "\t")

## Rows: 26 Columns: 1
## ── Column specification ────────────────────────────────────────────────────────
## Delimiter: "\t"
## chr (1): Buenas noches,
## 
## ℹ Use `spec()` to retrieve the full column specification for this data.
## ℹ Specify the column types or set `show_col_types = FALSE` to quiet this message.

discurso_2021

## # A tibble: 26 × 1
##    `Buenas noches,`                                                             
##    <chr>                                                                        
##  1 Mis primeras palabras en esta Nochebuena quiero dedicarlas a quienes vivís e…
##  2 Hoy nuestro corazón y nuestro pensamiento siguen con vosotros. Nos sentimos …
##  3 El año pasado, en mi mensaje de Navidad, compartí con vosotros la necesidad …
##  4 Un año después —y siempre con toda la prudencia necesaria— la situación es d…
##  5 Aun así, estamos viendo que el virus todavía tiene la capacidad de hacernos …
##  6 También en este último año muchos ciudadanos continúan padeciendo las consec…
##  7 Y junto a todo ello, es verdad que en el mundo es un hecho que los países de…
##  8 También, las nuevas tecnologías están cambiando los tradicionales modos de p…
##  9 Estos son algunos ejemplos de los retos que tenemos por delante y que muestr…
## 10 Ante esta situación ¿qué hacer?, ¿tenemos que dejarnos llevar por el pesimis…
## # ℹ 16 more rows
…
18.15 Importando datos: datos EXCEL

También podemos .bg-purple_light[cargar un Excel con varias hojas], pero por defecto nos carga solo la primera hoja. Para indicarle la hoja (bien por su nombre bien por su número) usaremos el argumento sheet = ...

mtcars <- read_xlsx(path = "./datos/datasets.xlsx",
                      sheet = "mtcars")
mtcars

## # A tibble: 32 × 11
##      mpg   cyl  disp    hp  drat    wt  qsec    vs    am  gear  carb
##    <dbl> <dbl> <dbl> <dbl> <dbl> <dbl> <dbl> <dbl> <dbl> <dbl> <dbl>
##  1  21       6  160    110  3.9   2.62  16.5     0     1     4     4
##  2  21       6  160    110  3.9   2.88  17.0     0     1     4     4
##  3  22.8     4  108     93  3.85  2.32  18.6     1     1     4     1
##  4  21.4     6  258    110  3.08  3.22  19.4     1     0     3     1
##  5  18.7     8  360    175  3.15  3.44  17.0     0     0     3     2
##  6  18.1     6  225    105  2.76  3.46  20.2     1     0     3     1
##  7  14.3     8  360    245  3.21  3.57  15.8     0     0     3     4
##  8  24.4     4  147.    62  3.69  3.19  20       1     0     4     2
##  9  22.8     4  141.    95  3.92  3.15  22.9     1     0     4     2
## 10  19.2     6  168.   123  3.92  3.44  18.3     1     0     4     4
## # ℹ 22 more rows
…
